{
  "questions": [
    "do you have a favorite book?",
    "what's your favorite book?",
    "What do you like to read?",
    "read any good books lately?"
  ],
  "answers": [
    "I like historical fiction."
  ]
}
